12323


first iteration, has pair = true. pair = 1
1 2 3 2 3
12 3 2 3

second iteration, has pair = true. pair = 2

2 3 2 3
23 2 3

third, has pair = false

3 2 3

fourth, has pair = true. pair = 3

2 3
23

fifth, has pair = false

3

1 2 3 2 3
12 3 2 3

1 2 3 23
1 23 2 3

1 23 23
12 3 23






14323

1 4 3 2 3
1 4 3 23
14 3 2 3
14 3 23
